[gd_scene load_steps=6 format=3 uid="uid://djwm1q0cqhu2p"]

[ext_resource type="Script" path="res://scripts/shop_item.gd" id="1_2grri"]
[ext_resource type="Texture2D" uid="uid://bf5u7kdu410uy" path="res://assets/playcube_promo.png" id="1_gk2d5"]
[ext_resource type="Texture2D" uid="uid://dqrs2w8c8fryo" path="res://assets/tiny_town_tiles.png" id="2_tpda8"]

[sub_resource type="AtlasTexture" id="AtlasTexture_p27fm"]
atlas = ExtResource("1_gk2d5")
region = Rect2(32, 64, 168, 88)

[sub_resource type="AtlasTexture" id="AtlasTexture_ap6f1"]
atlas = ExtResource("2_tpda8")
region = Rect2(144, 112, 16, 16)

[node name="ShopItem" type="VBoxContainer"]
script = ExtResource("1_2grri")
item_cost = 500

[node name="ItemPicture" type="TextureRect" parent="."]
layout_mode = 2
texture = SubResource("AtlasTexture_p27fm")

[node name="ItemLabel" type="Label" parent="."]
custom_minimum_size = Vector2(170, 0)
layout_mode = 2
text = " PlayCube720 (pre-order)"
horizontal_alignment = 1
autowrap_mode = 3

[node name="ItemButton" type="Button" parent="."]
layout_mode = 2
disabled = true
text = "500"
icon = SubResource("AtlasTexture_ap6f1")
