[gd_scene load_steps=6 format=3 uid="uid://c48dqe25774va"]

[ext_resource type="Script" path="res://scripts/sign.gd" id="1_2i3rt"]
[ext_resource type="Texture2D" uid="uid://cdv0y44vvsiew" path="res://assets/atlas/signs.tres" id="2_fe8e2"]
[ext_resource type="Theme" uid="uid://cbdhfsfp55ug8" path="res://base_theme.tres" id="3_x5r6v"]

[sub_resource type="RectangleShape2D" id="RectangleShape2D_56r0j"]
size = Vector2(56, 58)

[sub_resource type="RectangleShape2D" id="RectangleShape2D_xxfwl"]
size = Vector2(80, 128)

[node name="Sign" type="StaticBody2D"]
position = Vector2(0, -24)
collision_mask = 4
script = ExtResource("1_2i3rt")

[node name="Sprite2D" type="Sprite2D" parent="."]
position = Vector2(0, -8)
scale = Vector2(4, 4)
texture = ExtResource("2_fe8e2")
vframes = 3

[node name="CollisionShape2D" type="CollisionShape2D" parent="."]
position = Vector2(0, -5)
shape = SubResource("RectangleShape2D_56r0j")
debug_color = Color(1, 0.6, 0.701961, 0.419608)

[node name="TriggerZone" type="Area2D" parent="."]
position = Vector2(0, 24)
collision_mask = 4

[node name="TriggerShape2D" type="CollisionShape2D" parent="TriggerZone"]
shape = SubResource("RectangleShape2D_xxfwl")

[node name="TextLabel" type="Label" parent="."]
visible = false
custom_minimum_size = Vector2(256, 0)
anchors_preset = 7
anchor_left = 0.5
anchor_top = 1.0
anchor_right = 0.5
anchor_bottom = 1.0
offset_left = -24.0
offset_top = -167.0
offset_right = 24.0
offset_bottom = -40.0
grow_horizontal = 2
grow_vertical = 0
theme = ExtResource("3_x5r6v")
text = "test"
horizontal_alignment = 1
vertical_alignment = 2
autowrap_mode = 3
metadata/_edit_use_anchors_ = true

[connection signal="body_entered" from="TriggerZone" to="." method="_on_trigger_zone_body_entered"]
[connection signal="body_exited" from="TriggerZone" to="." method="_on_trigger_zone_body_exited"]
